0.97.81.119
1.25.213.158
3.24.149.54
3.46.98.127
3.237.24.105
4.52.2.205
4.105.179.252
5.13.174.45
5.114.160.96
5.189.99.246
5.253.217.101
6.5.11.20
7.8.10.119
7.174.144.120
7.196.93.57
8.114.71.137
9.210.249.34
10.53.168.208
10.69.52.188
10.238.160.192
11.14.65.16
11.64.152.90
11.89.205.190
11.122.99.211
11.157.230.193
11.183.206.222
14.50.108.87
14.52.165.140
14.149.144.168
14.193.53.128
15.137.71.200
16.1.14.57
16.101.151.145
16.247.22.197
17.105.234.10
17.133.161.52
17.139.134.233
17.178.89.34
18.111.221.218
19.190.17.200
19.209.43.228
20.94.241.92
21.239.136.81
22.80.246.176
22.182.205.0
23.76.49.154
23.93.130.144
24.61.159.202
24.88.73.180
25.58.75.249
25.89.89.65
26.71.27.186
26.148.64.97
26.182.30.174
27.23.238.49
27.140.46.54
28.4.139.30
28.71.0.198
28.83.100.100
28.161.26.16
28.180.101.95
29.2.39.94
29.39.44.95
29.161.199.38
29.201.121.233
31.25.219.99
33.154.39.52
33.168.46.188
33.177.253.132
33.215.178.59
34.8.144.189
34.54.165.174
34.80.130.251
35.131.58.233
36.206.33.126
37.200.192.195
38.106.55.33
40.3.55.207
41.4.10.213
41.179.40.44
42.174.131.128
43.62.152.91
43.98.176.120
43.110.40.188
44.237.77.251
45.194.46.221
45.216.154.169
46.61.138.13
46.208.206.195
47.75.227.120
47.136.231.150
48.9.227.245
48.95.98.206
49.116.8.154
49.223.142.113
50.24.32.185
50.91.68.163
50.174.2.106
51.23.219.55
52.71.34.244
52.192.157.197
52.242.235.83
52.246.181.135
53.244.212.103
54.82.5.126
54.98.109.23
54.237.217.129
55.39.7.187
55.182.150.254
55.191.142.222
55.223.5.115
56.22.168.161
56.54.204.115
56.110.23.248
57.86.198.78
58.8.27.241
59.9.1.192
59.181.128.226
59.251.145.211
60.10.167.5
60.204.157.72
61.158.28.150
62.38.126.88
62.80.11.186
62.124.89.174
65.7.43.255
65.203.177.21
65.244.115.243
68.133.44.225
69.123.222.163
69.250.213.180
70.218.231.234
71.46.118.5
74.111.144.233
74.183.112.204
74.231.123.108
74.238.68.88
74.255.200.135
75.182.226.235
77.28.3.134
77.135.243.195
78.1.35.151
79.11.27.182
80.54.68.35
80.57.31.224
80.86.254.91
80.209.198.204
80.249.113.73
81.105.98.174
81.250.239.49
82.38.25.119
82.212.61.202
83.0.211.156
83.136.45.59
83.159.126.186
83.169.226.40
83.180.152.240
84.223.243.55
85.194.26.46
85.196.94.102
85.245.87.43
86.62.120.181
86.82.135.6
87.84.219.231
87.96.102.92
87.186.162.122
88.185.98.225
88.239.150.181
89.92.88.115
90.188.28.200
91.34.105.133
91.70.191.149
92.12.89.232
92.55.56.132
94.25.232.153
94.81.31.10
94.86.95.242
95.7.244.199
95.85.167.206
95.188.176.5
95.223.200.223
97.231.123.97
98.18.52.197
98.53.104.255
99.72.207.60
99.75.34.252
99.211.60.135
100.5.145.24
100.30.125.36
100.48.180.117
100.124.103.71
101.232.166.79
102.70.216.152
102.101.136.93
102.161.249.112
103.119.16.222
103.142.28.11
103.171.177.216
104.2.32.115
104.15.171.126
104.55.93.20
104.92.139.122
105.12.46.107
106.23.17.33
106.160.66.25
106.238.84.69
107.71.199.228
107.197.41.33
109.82.31.153
110.8.118.175
110.42.155.200
110.255.198.141
111.141.5.44
111.177.2.106
111.231.178.240
113.56.188.163
113.83.15.223
114.136.0.83
114.149.164.2
115.21.184.155
115.163.107.0
115.167.209.184
116.169.38.228
117.98.84.55
117.225.163.82
119.148.201.61
120.29.133.241
120.123.155.105
120.211.109.90
120.211.133.142
121.109.246.154
123.70.17.197
123.160.194.72
123.164.66.211
124.210.22.228
125.20.210.65
126.29.243.189
126.148.176.145
126.187.49.188
127.140.197.246
127.212.136.244
127.242.34.144
128.243.90.14
129.27.239.55
130.24.238.69
130.120.251.207
131.171.240.141
131.194.127.3
132.83.220.192
133.59.170.170
133.223.39.65
133.254.4.27
134.41.81.105
134.55.97.86
134.108.104.203
134.192.145.225
134.216.229.72
135.138.82.11
135.142.173.118
135.192.44.216
136.247.32.157
137.15.8.150
137.75.42.227
138.52.167.63
138.119.192.242
138.205.218.201
139.194.208.107
140.183.91.70
141.51.232.148
141.165.232.97
143.4.119.61
143.12.121.30
144.53.112.106
144.246.22.249
146.57.228.208
147.69.155.18
148.189.204.21
148.241.178.134
149.18.242.95
149.127.87.180
149.193.58.128
149.244.242.190
150.45.19.185
150.72.52.226
150.227.131.21
151.30.250.143
151.53.161.126
151.109.75.201
152.71.66.130
152.95.227.184
152.182.42.19
152.231.163.215
153.7.45.201
153.87.187.36
153.143.233.125
154.99.90.49
154.194.45.103
154.218.113.239
156.171.84.148
157.36.48.68
157.109.3.216
158.66.210.25
158.68.226.77
158.80.151.247
158.102.196.41
158.103.252.192
160.107.118.144
161.174.84.211
162.11.30.129
162.53.13.215
163.39.250.205
163.238.104.150
164.10.172.125
164.76.62.74
164.96.195.102
165.145.170.103
165.229.197.196
165.247.93.24
166.68.90.61
167.43.123.124
168.134.159.26
168.145.100.11
168.220.213.32
168.227.118.28
169.4.149.157
169.23.11.240
169.180.222.199
170.30.12.78
170.248.74.80
172.55.165.54
172.123.42.10
173.47.195.56
173.61.175.179
173.73.116.227
173.99.188.192
173.191.232.142
174.22.36.76
174.31.5.111
174.66.31.195
174.71.17.35
174.184.21.17
175.18.105.155
175.33.81.75
175.134.107.197
176.21.22.254
176.35.163.98
176.238.212.141
177.29.203.208
177.135.222.78
177.141.14.129
177.165.38.75
177.205.193.74
178.5.73.57
178.21.101.20
178.129.104.201
178.239.113.17
179.148.16.157
179.159.77.40
180.34.46.142
180.111.79.74
181.46.132.178
182.60.53.89
182.62.50.52
182.172.188.133
182.191.117.136
182.193.124.38
183.234.239.242
185.82.254.174
185.84.78.178
185.127.52.118
185.209.111.190
186.11.147.45
186.132.196.163
186.236.63.72
187.67.109.141
187.97.52.7
187.132.142.208
187.134.35.87
187.145.14.139
189.147.143.149
189.215.50.72
190.89.105.201
190.118.158.1
191.219.159.49
192.1.111.15
192.64.52.108
192.76.235.28
193.66.130.33
194.83.178.253
194.169.84.113
194.239.105.240
195.100.111.175
196.141.115.151
198.168.73.95
200.3.21.200
200.68.178.26
201.151.177.75
201.162.239.250
203.38.203.0
204.7.44.5
204.132.174.57
204.224.140.61
204.237.13.231
205.169.44.247
206.132.241.139
206.136.236.117
207.21.42.162
207.76.184.135
208.31.97.113
208.163.228.110
208.174.45.97
208.230.217.7
209.115.216.105
210.18.245.161
210.88.57.126
211.174.75.230
211.174.144.142
212.76.19.42
213.208.32.243
214.41.196.28
214.60.87.89
214.196.5.114
215.131.14.246
216.107.11.81
218.119.155.7
219.9.137.92
219.84.130.83
219.125.16.109
219.231.150.67
219.254.84.213
220.20.131.49
220.40.169.183
222.92.18.165
222.119.118.12
222.123.229.251
223.88.158.5
223.149.225.139
224.32.52.19
224.213.67.151
225.186.255.10
226.7.201.255
226.26.144.231
226.57.201.149
226.110.159.31
228.109.207.205
228.113.148.42
228.153.209.134
228.189.176.138
228.199.115.11
229.4.250.161
229.115.174.97
230.21.95.25
230.58.213.36
230.78.71.234
230.127.84.172
230.128.216.171
230.132.31.147
230.215.100.64
231.31.216.164
231.146.203.57
232.32.141.145
232.105.55.187
236.93.11.250
237.204.78.132
238.13.117.173
238.51.185.73
238.203.255.116
239.14.149.76
239.188.170.175
240.124.145.102
241.91.174.164
241.241.171.31
242.104.223.230
242.138.104.103
243.176.242.249
243.227.227.5
243.243.234.159
243.246.56.237
244.48.10.95
244.111.233.153
244.151.59.79
245.9.22.124
245.11.54.243
245.112.24.123
246.75.11.57
246.128.150.215
247.56.247.234
247.214.8.5
248.135.188.237
249.60.7.119
249.207.100.64
249.246.197.73
250.64.84.191
250.207.114.103
251.50.76.201
252.116.218.1
252.221.178.163
253.99.145.123
253.176.134.26
254.63.81.91
